\relax 
\ifx\hyper@anchor\@undefined
\global \let \oldcontentsline\contentsline
\gdef \contentsline#1#2#3#4{\oldcontentsline{#1}{#2}{#3}}
\global \let \oldnewlabel\newlabel
\gdef \newlabel#1#2{\newlabelxx{#1}#2}
\gdef \newlabelxx#1#2#3#4#5#6{\oldnewlabel{#1}{{#2}{#3}}}
\AtEndDocument{\let \contentsline\oldcontentsline
\let \newlabel\oldnewlabel}
\else
\global \let \hyper@last\relax 
\fi

\select@language{english}
\@writefile{toc}{\select@language{english}}
\@writefile{lof}{\select@language{english}}
\@writefile{lot}{\select@language{english}}
\newlabel{index::doc}{{}{1}{\relax }{section*.2}{}}
\@writefile{toc}{\contentsline {chapter}{\numberline {1}User Guide}{1}{chapter.1}}
\@writefile{lof}{\addvspace {10\p@ }}
\@writefile{lot}{\addvspace {10\p@ }}
\newlabel{userguide:user-guide}{{1}{1}{User Guide\relax }{chapter.1}{}}
\newlabel{userguide::doc}{{1}{1}{User Guide\relax }{chapter.1}{}}
\newlabel{userguide:event-related-neuronal-simulation-tool-documentation}{{1}{1}{User Guide\relax }{chapter.1}{}}
\@writefile{toc}{\contentsline {section}{\numberline {1.1}Introduction}{1}{section.1.1}}
\newlabel{userguide:introduction}{{1.1}{1}{Introduction\relax }{section.1.1}{}}
\@writefile{toc}{\contentsline {section}{\numberline {1.2}Installation}{1}{section.1.2}}
\newlabel{userguide:installation}{{1.2}{1}{Installation\relax }{section.1.2}{}}
\newlabel{userguide:computational-neuroscience-lab}{{1.2}{1}{Installation\relax }{section.1.2}{}}
\@writefile{toc}{\contentsline {section}{\numberline {1.3}The ERNST Workflow}{1}{section.1.3}}
\newlabel{userguide:the-ernst-workflow}{{1.3}{1}{The ERNST Workflow\relax }{section.1.3}{}}
\@writefile{toc}{\contentsline {section}{\numberline {1.4}Importing ERNST}{2}{section.1.4}}
\newlabel{userguide:importing-ernst}{{1.4}{2}{Importing ERNST\relax }{section.1.4}{}}
\@writefile{toc}{\contentsline {section}{\numberline {1.5}Creating a Simulation}{2}{section.1.5}}
\newlabel{userguide:creating-a-simulation}{{1.5}{2}{Creating a Simulation\relax }{section.1.5}{}}
\@writefile{toc}{\contentsline {subsection}{\numberline {1.5.1}Defining the Network}{2}{subsection.1.5.1}}
\newlabel{userguide:defining-the-network}{{1.5.1}{2}{Defining the Network\relax }{subsection.1.5.1}{}}
\@writefile{toc}{\contentsline {subsubsection}{Creating Populations}{2}{subsubsection*.3}}
\newlabel{userguide:creating-populations}{{1.5.1}{2}{Creating Populations\relax }{subsubsection*.3}{}}
\@writefile{toc}{\contentsline {subsubsection}{Connecting Populations}{3}{subsubsection*.4}}
\newlabel{userguide:connecting-populations}{{1.5.1}{3}{Connecting Populations\relax }{subsubsection*.4}{}}
\@writefile{toc}{\contentsline {subsubsection}{Recording Neurons}{3}{subsubsection*.5}}
\newlabel{userguide:recording-neurons}{{1.5.1}{3}{Recording Neurons\relax }{subsubsection*.5}{}}
\@writefile{toc}{\contentsline {subsubsection}{Building the Network}{4}{subsubsection*.6}}
\newlabel{userguide:building-the-network}{{1.5.1}{4}{Building the Network\relax }{subsubsection*.6}{}}
\@writefile{toc}{\contentsline {subsection}{\numberline {1.5.2}Defining the Experiment}{4}{subsection.1.5.2}}
\newlabel{userguide:defining-the-experiment}{{1.5.2}{4}{Defining the Experiment\relax }{subsection.1.5.2}{}}
\@writefile{toc}{\contentsline {subsection}{\numberline {1.5.3}Building the Simulation}{5}{subsection.1.5.3}}
\newlabel{userguide:building-the-simulation}{{1.5.3}{5}{Building the Simulation\relax }{subsection.1.5.3}{}}
\@writefile{toc}{\contentsline {section}{\numberline {1.6}Running a Simulation}{6}{section.1.6}}
\newlabel{userguide:running-a-simulation}{{1.6}{6}{Running a Simulation\relax }{section.1.6}{}}
\@writefile{toc}{\contentsline {subsection}{\numberline {1.6.1}Multiple Hosts}{6}{subsection.1.6.1}}
\newlabel{userguide:multiple-hosts}{{1.6.1}{6}{Multiple Hosts\relax }{subsection.1.6.1}{}}
\@writefile{toc}{\contentsline {section}{\numberline {1.7}Analyzing Recorded Data}{7}{section.1.7}}
\newlabel{userguide:analyzing-recorded-data}{{1.7}{7}{Analyzing Recorded Data\relax }{section.1.7}{}}
\@writefile{toc}{\contentsline {subsection}{\numberline {1.7.1}The Results Record Array}{7}{subsection.1.7.1}}
\newlabel{userguide:the-results-record-array}{{1.7.1}{7}{The Results Record Array\relax }{subsection.1.7.1}{}}
\@writefile{toc}{\contentsline {chapter}{\numberline {2}ERNST Python Reference}{9}{chapter.2}}
\@writefile{lof}{\addvspace {10\p@ }}
\@writefile{lot}{\addvspace {10\p@ }}
\newlabel{reference:ernst-python-reference}{{2}{9}{ERNST Python Reference\relax }{chapter.2}{}}
\newlabel{reference::doc}{{2}{9}{ERNST Python Reference\relax }{chapter.2}{}}
\@writefile{toc}{\contentsline {section}{\numberline {2.1}create}{9}{section.2.1}}
\newlabel{reference:create}{{2.1}{9}{create\relax }{section.2.1}{}}
\newlabel{reference:create.Simulation}{{2.1}{9}{create\relax }{section*.7}{}}
\newlabel{reference:create.Network}{{2.1}{9}{create\relax }{section*.8}{}}
\newlabel{reference:create.Network.add}{{2.1}{9}{create\relax }{section*.9}{}}
\newlabel{reference:create.Population}{{2.1}{9}{create\relax }{section*.10}{}}
\newlabel{reference:create.Population.record}{{2.1}{10}{create\relax }{section*.11}{}}
\newlabel{reference:create.Population.record_intracellular}{{2.1}{10}{create\relax }{section*.12}{}}
\newlabel{reference:create.Population.record_line}{{2.1}{10}{create\relax }{section*.13}{}}
\newlabel{reference:create.Population.record_square}{{2.1}{10}{create\relax }{section*.14}{}}
\newlabel{reference:create.Projection}{{2.1}{10}{create\relax }{section*.15}{}}
\newlabel{reference:create.Experiment}{{2.1}{10}{create\relax }{section*.16}{}}
\newlabel{reference:create.Experiment.add}{{2.1}{10}{create\relax }{section*.17}{}}
\newlabel{reference:create.Subexperiment}{{2.1}{10}{create\relax }{section*.18}{}}
\newlabel{reference:create.Subexperiment.add}{{2.1}{11}{create\relax }{section*.19}{}}
\newlabel{reference:create.Input}{{2.1}{11}{create\relax }{section*.20}{}}
\@writefile{toc}{\contentsline {subsection}{\numberline {2.1.1}Cell classes}{11}{subsection.2.1.1}}
\newlabel{reference:cellclasses}{{2.1.1}{11}{Cell classes\relax }{subsection.2.1.1}{}}
\newlabel{reference:cell-classes}{{2.1.1}{11}{Cell classes\relax }{subsection.2.1.1}{}}
\newlabel{reference:create.SIF}{{2.1.1}{11}{Cell classes\relax }{section*.21}{}}
\newlabel{reference:create.MiNi}{{2.1.1}{12}{Cell classes\relax }{section*.22}{}}
\newlabel{reference:create.SpikeSourcePoisson}{{2.1.1}{12}{Cell classes\relax }{section*.23}{}}
\newlabel{reference:create.SpikeSourceFile}{{2.1.1}{13}{Cell classes\relax }{section*.24}{}}
\@writefile{toc}{\contentsline {subsection}{\numberline {2.1.2}Connectors}{13}{subsection.2.1.2}}
\newlabel{reference:connectors}{{2.1.2}{13}{Connectors\relax }{subsection.2.1.2}{}}
\newlabel{reference:id1}{{2.1.2}{13}{Connectors\relax }{subsection.2.1.2}{}}
\newlabel{reference:create.OneToOneConnector}{{2.1.2}{13}{Connectors\relax }{section*.25}{}}
\newlabel{reference:create.AllToAllConnector}{{2.1.2}{13}{Connectors\relax }{section*.26}{}}
\newlabel{reference:create.PointsConnector}{{2.1.2}{13}{Connectors\relax }{section*.27}{}}
\newlabel{reference:create.ProbabilityPointsConnector}{{2.1.2}{14}{Connectors\relax }{section*.28}{}}
\newlabel{reference:create.PatternConnector}{{2.1.2}{14}{Connectors\relax }{section*.29}{}}
\newlabel{reference:create.ProbabilityPatternConnector}{{2.1.2}{14}{Connectors\relax }{section*.30}{}}
\@writefile{toc}{\contentsline {subsection}{\numberline {2.1.3}Stimuli}{15}{subsection.2.1.3}}
\newlabel{reference:stimuli}{{2.1.3}{15}{Stimuli\relax }{subsection.2.1.3}{}}
\newlabel{reference:id2}{{2.1.3}{15}{Stimuli\relax }{subsection.2.1.3}{}}
\newlabel{reference:create.BackgroundStimulus}{{2.1.3}{15}{Stimuli\relax }{section*.31}{}}
\newlabel{reference:create.PointStimulus}{{2.1.3}{15}{Stimuli\relax }{section*.32}{}}
\newlabel{reference:create.LineStimulus}{{2.1.3}{15}{Stimuli\relax }{section*.33}{}}
\newlabel{reference:create.SquareStimulus}{{2.1.3}{15}{Stimuli\relax }{section*.34}{}}
\newlabel{reference:create.FilledSquareStimulus}{{2.1.3}{15}{Stimuli\relax }{section*.35}{}}
\newlabel{reference:create.MatrixStimulus}{{2.1.3}{15}{Stimuli\relax }{section*.36}{}}
\newlabel{reference:create.ImageStimulus}{{2.1.3}{15}{Stimuli\relax }{section*.37}{}}
\@writefile{toc}{\contentsline {section}{\numberline {2.2}run}{16}{section.2.2}}
\newlabel{reference:run}{{2.2}{16}{run\relax }{section.2.2}{}}
\newlabel{reference:run.setup}{{2.2}{16}{run\relax }{section*.38}{}}
\newlabel{reference:run.end}{{2.2}{16}{run\relax }{section*.39}{}}
\newlabel{reference:run.run}{{2.2}{16}{run\relax }{section*.40}{}}
\@writefile{toc}{\contentsline {section}{\numberline {2.3}results}{16}{section.2.3}}
\newlabel{reference:results}{{2.3}{16}{results\relax }{section.2.3}{}}
\newlabel{reference:id3}{{2.3}{16}{results\relax }{section.2.3}{}}
\@writefile{toc}{\contentsline {subsection}{\numberline {2.3.1}The Results NumPy Array}{17}{subsection.2.3.1}}
\newlabel{reference:the-results-numpy-array}{{2.3.1}{17}{The Results NumPy Array\relax }{subsection.2.3.1}{}}
\@writefile{toc}{\contentsline {subsection}{\numberline {2.3.2}Results Classes and Functions}{17}{subsection.2.3.2}}
\newlabel{reference:results-classes-and-functions}{{2.3.2}{17}{Results Classes and Functions\relax }{subsection.2.3.2}{}}
\newlabel{reference:results.SingleUnitPlot}{{2.3.2}{17}{Results Classes and Functions\relax }{section*.41}{}}
\newlabel{reference:results.SingleUnitPlot.save}{{2.3.2}{17}{Results Classes and Functions\relax }{section*.42}{}}
\newlabel{reference:results.SingleUnitPlot.show}{{2.3.2}{17}{Results Classes and Functions\relax }{section*.43}{}}
\newlabel{reference:results.FieldPlot}{{2.3.2}{17}{Results Classes and Functions\relax }{section*.44}{}}
\newlabel{reference:results.FieldPlot.save}{{2.3.2}{17}{Results Classes and Functions\relax }{section*.45}{}}
\newlabel{reference:results.FieldPlot.show}{{2.3.2}{17}{Results Classes and Functions\relax }{section*.46}{}}
\newlabel{reference:results.IntracellularPlot}{{2.3.2}{18}{Results Classes and Functions\relax }{section*.47}{}}
\newlabel{reference:results.IntracellularPlot.save}{{2.3.2}{18}{Results Classes and Functions\relax }{section*.48}{}}
\newlabel{reference:results.IntracellularPlot.show}{{2.3.2}{18}{Results Classes and Functions\relax }{section*.49}{}}
\newlabel{reference:results.show}{{2.3.2}{18}{Results Classes and Functions\relax }{section*.50}{}}
\newlabel{reference:results.savemat}{{2.3.2}{18}{Results Classes and Functions\relax }{section*.51}{}}
\newlabel{reference:results.print_spikes}{{2.3.2}{18}{Results Classes and Functions\relax }{section*.52}{}}
\newlabel{reference:results.print_intracellular}{{2.3.2}{18}{Results Classes and Functions\relax }{section*.53}{}}
\@writefile{toc}{\contentsline {section}{\numberline {2.4}jpvm}{19}{section.2.4}}
\newlabel{reference:jpvm}{{2.4}{19}{jpvm\relax }{section.2.4}{}}
\newlabel{reference:jpvm.startJPVM}{{2.4}{19}{jpvm\relax }{section*.54}{}}
\newlabel{reference:jpvm.stopJPVM}{{2.4}{19}{jpvm\relax }{section*.55}{}}
\newlabel{reference:jpvm.killJPVM}{{2.4}{19}{jpvm\relax }{section*.56}{}}
\newlabel{reference:jpvm.addHost}{{2.4}{19}{jpvm\relax }{section*.57}{}}
\@writefile{toc}{\contentsline {chapter}{Index}{21}{section*.58}}
